%YAML 1.1
%TAG !u! tag:unity3d.com,2011:
--- !u!1045 &1
EditorBuildSettings:
  m_ObjectHideFlags: 0
  serializedVersion: 2
  m_Scenes:
  - enabled: 1
    path: Assets/Scenes/MainMenu.unity
    guid: de3042f87cbbc844691597faa0276913
  - enabled: 1
    path: Assets/Scenes/Gameplay.unity
    guid: 215abdb8709490a44af129ebf781fbb4
  m_configObjects: {}
